[gd_scene load_steps=5 format=2]

[ext_resource path="res://resource.gd" type="Script" id=1]
[ext_resource path="res://Wood.png" type="Texture" id=2]

[sub_resource type="CircleShape2D" id=1]

custom_solver_bias = 0.0
radius = 30.0

[sub_resource type="CircleShape2D" id=2]

custom_solver_bias = 0.0
radius = 50.0

[node name="Tree" type="StaticBody2D" index="0"]

input_pickable = true
collision_layer = 1
collision_mask = 1
constant_linear_velocity = Vector2( 0, 0 )
constant_angular_velocity = 0.0
friction = 1.0
bounce = 0.0
script = ExtResource( 1 )
_sections_unfolded = [ "Pickable" ]
resource = 20
harvest_roi = 2
res_type = "wood"

[node name="CollisionShape2D" type="CollisionShape2D" parent="." index="0"]

shape = SubResource( 1 )

[node name="Sprite" type="Sprite" parent="." index="1"]

texture = ExtResource( 2 )

[node name="PlayerArea" type="Area2D" parent="." index="2"]

input_pickable = true
gravity_vec = Vector2( 0, 1 )
gravity = 98.0
linear_damp = 0.1
angular_damp = 1.0
audio_bus_override = false
audio_bus_name = "Master"

[node name="CollisionShape2D" type="CollisionShape2D" parent="PlayerArea" index="0"]

shape = SubResource( 2 )

[node name="Tween" type="Tween" parent="." index="3"]

repeat = false
playback_process_mode = 1
playback_speed = 1.0
playback/active = false
playback/repeat = false
playback/speed = 1.0


